{
    "projectName": "pocket-tutor-v2",
    "version": "2.0",
    "frontend": "javascript",
    "javascript": {
        "framework": "react-native",
        "config": {
            "SourceDir": "/",
            "DistributionDir": "/",
            "BuildCommand": "npm.cmd run-script build",
            "StartCommand": "npm.cmd run-script start"
        }
    },
    "providers": [
        "awscloudformation"
    ]
}